int colArrayCounter;
color[] colArray = {
  color(220, 20, 60),
  color(255, 0, 0),
  color(178, 34, 34),
  color(139, 0, 0),
  color(205, 92, 92),
  color(240, 128, 128),
 
};

void setup(){
  size(1080,1080);
  surface.setLocation(987,70);
  noStroke();
  mouseX = 10;
  frameRate(10);
}

  void draw() {
    background(#282828);

    translate(width/2, height/2);

    float rStep = 30;
    float rMax = 400;
    float rMin = mouseX;

    for (float r=rMin; r<rMax; r+=rStep) {

      float c= 2*PI*r; //para formar una circumferencia
      float cSegment = map(r, 0, rMax, rStep*3/4, rStep/2);
      float aSegment = floor(c/cSegment); //ángulo
      float ellipseSize = map(r, 0, rMax, rStep*3/4-1, rStep/4);

      for (float a=0; a<360; a+=360/aSegment) {
        
        colArrayCounter++;
        if(colArrayCounter>5) colArrayCounter = 0;
        fill(colArray[colArrayCounter]);
        
        pushMatrix();
        rotate(radians(a));
        ellipse(r, 0, ellipseSize, ellipseSize);
        popMatrix();
      }
    }
  }

    void keyPressed() {
      if(key==' ') {
        background(#282828);
        redraw();
      }
  }